{
	"name": "Node.js",
	"dockerComposeFile": "docker-compose.yml",
	"workspaceFolder": "/workspace",
	"service": "app",
	"extensions": ["dbaeumer.vscode-eslint", "esbenp.prettier-vscode"],
	"remoteUser": "vscode"
}
